<?xml version="1.0" encoding="utf-8"?>
<!-- Generator: Adobe Illustrator 22.1.0, SVG Export Plug-In . SVG Version: 6.00 Build 0)  -->
<svg version="1.1" id="Capa_1" xmlns="http://www.w3.org/2000/svg" xmlns:xlink="http://www.w3.org/1999/xlink" x="0px" y="0px"
	 viewBox="0 0 455.7 455.7" style="enable-background:new 0 0 455.7 455.7;" xml:space="preserve">
<style type="text/css">
	.st0{fill:#7D3DAF;}
	.st1{display:none;fill:#1BD741;}
	.st2{display:none;}
	.st3{display:inline;fill:#FFFFFF;}
	.st4{fill:#FFFFFF;}
</style>
<g>
	<g>
		<rect class="st0" width="455.7" height="455.7"/>
	</g>
	<rect y="0" class="st1" width="455.7" height="455.7"/>
	<g class="st2">
		<path class="st3" d="M40.8,415.2L67,322.1c-16.9-28.6-25.7-61.2-25.7-94.7c0-103,83.8-186.8,186.8-186.8S415,124.4,415,227.4
			s-83.8,186.8-186.8,186.8c-32.1,0-63.5-8.2-91.3-23.8L40.8,415.2z M141.7,356.5l5.7,3.5c24.2,14.8,52.2,22.6,80.7,22.6
			c85.6,0,155.2-69.6,155.2-155.2S313.7,72.3,228.1,72.3S73,141.9,73,227.4c0,29.8,8.5,58.8,24.5,83.7l3.9,6l-15.1,53.6L141.7,356.5
			z"/>
		<path class="st3" d="M175.6,140.5l-12.1-0.7c-3.8-0.2-7.5,1.1-10.4,3.6c-5.9,5.1-15.3,15-18.2,27.8c-4.3,19.2,2.3,42.7,19.6,66.1
			s49.3,61,106,77.1c18.3,5.2,32.7,1.7,43.8-5.4c8.8-5.6,14.8-14.6,17-24.8l1.9-9c0.6-2.9-0.8-5.8-3.5-7l-41-18.9
			c-2.7-1.2-5.8-0.5-7.6,1.9l-16.1,20.9c-1.2,1.6-3.3,2.2-5.2,1.5c-11-3.9-47.9-19.3-68.2-58.3c-0.9-1.7-0.7-3.7,0.6-5.2l15.4-17.8
			c1.6-1.8,2-4.4,1-6.6l-17.7-41.3C180.1,142.1,178,140.6,175.6,140.5z"/>
	</g>
	<g>
		<path class="st4" d="M410.9,142.4l-0.1-0.5c-9.3-37.6-51.2-77.9-89.7-86.3l-0.4-0.1c-62.3-11.9-125.4-11.9-187.7,0l-0.4,0.1
			C94,64,52.1,104.4,42.7,142l-0.1,0.5c-11.5,52.5-11.5,105.8,0,158.3l0.1,0.5c8.9,36,47.7,74.5,84.8,85.1v42
			c0,15.2,18.5,22.7,29,11.7l42.5-44.2c9.2,0.5,18.5,0.8,27.7,0.8c31.4,0,62.7-3,93.8-8.9l0.4-0.1c38.5-8.4,80.4-48.7,89.7-86.3
			l0.1-0.5C422.4,248.2,422.4,194.9,410.9,142.4z M377.3,293.1c-6.2,24.5-38,55-63.3,60.7c-33.1,6.3-66.5,9-99.8,8.1
			c-0.7,0-1.3,0.2-1.8,0.7c-4.7,4.9-31,31.9-31,31.9l-33,33.9c-2.4,2.5-6.7,0.8-6.7-2.7v-69.5c0-1.1-0.8-2.1-1.9-2.3c0,0,0,0,0,0
			c-25.3-5.6-57.1-36.1-63.3-60.7c-10.3-47.5-10.3-95.6,0-143c6.2-24.5,38-55,63.3-60.7c57.8-11,116.5-11,174.3,0
			c25.3,5.6,57.1,36.1,63.3,60.7C387.6,197.5,387.6,245.6,377.3,293.1z"/>
		<path class="st4" d="M281.8,325.2c-3.9-1.2-7.6-2-11-3.4c-35.7-14.8-68.5-33.9-94.5-63.1c-14.8-16.6-26.4-35.4-36.1-55.3
			c-4.6-9.4-8.5-19.2-12.5-29c-3.6-8.9,1.7-18,7.4-24.7c5.3-6.3,12.1-11.1,19.5-14.6c5.8-2.8,11.4-1.2,15.6,3.7
			c9.1,10.5,17.4,21.6,24.2,33.8c4.2,7.5,3,16.7-4.5,21.8c-1.8,1.2-3.5,2.7-5.2,4.1c-1.5,1.2-2.9,2.5-3.9,4.1c-1.9,3-2,6.6-0.8,10
			c9.3,25.5,24.9,45.3,50.6,56c4.1,1.7,8.2,3.7,13,3.1c7.9-0.9,10.5-9.6,16-14.2c5.4-4.4,12.4-4.5,18.2-0.8
			c5.8,3.7,11.5,7.7,17.2,11.7c5.5,3.9,11,7.8,16.1,12.3c4.9,4.3,6.6,10,3.8,15.9c-5.1,10.7-12.4,19.7-23,25.4
			C288.8,323.6,285.2,324.1,281.8,325.2C277.9,324,285.2,324.1,281.8,325.2z"/>
		<path class="st4" d="M226.9,122.7c46.6,1.3,85,32.3,93.2,78.4c1.4,7.9,1.9,15.9,2.5,23.9c0.3,3.4-1.6,6.5-5.3,6.6
			c-3.7,0-5.4-3.1-5.7-6.4c-0.5-6.6-0.8-13.3-1.7-19.9c-4.8-34.8-32.5-63.5-67.1-69.7c-5.2-0.9-10.5-1.2-15.8-1.7
			c-3.3-0.4-7.7-0.6-8.4-4.7c-0.6-3.5,2.3-6.2,5.6-6.4C225.1,122.7,226,122.7,226.9,122.7C273.5,124,226,122.7,226.9,122.7z"/>
		<path class="st4" d="M297.8,214.6c-0.1,0.6-0.1,2-0.5,3.2c-1.2,4.7-8.3,5.3-10,0.5c-0.5-1.4-0.6-3-0.6-4.5
			c0-9.9-2.2-19.8-7.1-28.3c-5.1-8.8-12.9-16.3-22.1-20.8c-5.5-2.7-11.6-4.4-17.6-5.4c-2.7-0.4-5.3-0.7-8-1.1
			c-3.2-0.4-5-2.5-4.8-5.7c0.1-3,2.3-5.1,5.6-5c10.7,0.6,21,2.9,30.6,8c19.4,10.2,30.4,26.4,33.6,48c0.1,1,0.4,1.9,0.5,2.9
			C297.5,209,297.6,211.4,297.8,214.6C297.7,215.2,297.6,211.4,297.8,214.6z"/>
		<path class="st4" d="M268.7,213.5c-3.9,0.1-6-2.1-6.4-5.7c-0.3-2.5-0.5-5-1.1-7.5c-1.2-4.8-3.7-9.2-7.7-12.1c-1.9-1.4-4-2.4-6.3-3
			c-2.9-0.8-5.8-0.6-8.7-1.3c-3.1-0.8-4.8-3.3-4.3-6.2c0.4-2.6,3-4.7,5.9-4.5c18.1,1.3,31,10.7,32.9,31.9c0.1,1.5,0.3,3.1,0,4.5
			C272.3,212.1,270.5,213.4,268.7,213.5C264.8,213.6,270.5,213.4,268.7,213.5z"/>
	</g>
</g>
</svg>
